2
9 4 2 9 4 . 15 12 5 . 31
36 10 2 36 10 . 15 1 10 . 88
2
18 15 . 8
35 9 . 8
50 21
. 00 . 00 . 00 ! 01 . 00 ! 01 ! 01 . 00 . 00 ~ 02 . 00 . 00 . 00 ~ 02 . 00 . 00 . 00 . 00 . 00 . 00 . 00 . 00 ! 01 . 00 ! 01 ~ 02 ! 01 ~ 02 ~ 02 . 00 . 00 . 00 . 00 . 00 . 00 ! 01 . 00 . 00 . 00 . 00 # 04 ! 01 . 00 . 00 . 00 ~ 02 . 00 . 00 . 00 . 00
. 00 # 28 # 25 # 25 # 27 # 25 # 25 # 25 # 25 # 27 # 25 # 25 # 28 # 25 # 25 # 27 # 25 # 25 # 26 # 25 # 25 # 27 # 25 # 25 # 26 # 25 # 27 # 25 # 25 # 28 # 25 # 25 # 25 # 27 # 25 # 25 # 26 # 25 # 25 # 27 # 25 # 25 # 26 # 25 # 25 # 27 # 25 # 25 # 28 ~ 02
! 01 # 24 . 08 ~ 10 . 08 . 08 . 08 . 08 . 08 ~ 10 ; 13 ; 12 # 24 . 08 ; 12 ~ 10 . 08 ~ 10 . 08 ~ 10 . 08 ~ 10 . 08 ~ 10 ~ 10 . 08 . 08 ~ 10 . 08 # 24 ! 09 . 08 ~ 10 . 08 . 08 ! 09 ~ 10 ! 09 . 08 . 08 ! 09 ! 09 ! 09 ; 13 ~ 10 ! 09 . 08 . 08 # 24 . 00
! 01 # 24 . 08 . 08 ; 11 . 08 ; 11 . 08 . 08 . 08 . 08 ~ 10 # 24 ~ 10 . 08 . 08 . 08 . 08 . 08 . 08 . 08 ~ 10 ~ 10 . 08 ~ 10 . 08 ~ 10 . 08 ; 12 # 24 . 08 . 08 ; 11 . 08 ! 09 . 08 ! 09 . 08 . 08 . 08 . 08 . 08 ! 09 . 08 ! 09 ! 09 . 08 . 08 # 24 ! 01
~ 02 # 24 . 08 . 08 . 08 . 08 . 08 . 08 . 08 / 14 . 08 ~ 10 # 24 . 08 . 08 . 08 ; 11 . 08 ~ 10 . 08 ; 12 . 08 ~ 10 . 08 ~ 10 ~ 10 . 08 . 08 . 08 . 31 . 08 . 08 . 08 . 08 ! 09 . 08 ! 09 . 08 . 08 ! 09 ~ 10 ! 09 . 08 ! 09 . 08 . 08 ~ 10 . 08 # 24 ! 01
. 00 # 24 ~ 10 . 08 . 08 . 08 . 08 . 08 . 08 . 08 . 08 . 08 # 24 ~ 10 ~ 10 . 08 . 08 . 08 ~ 10 ; 13 . 08 ~ 10 . 08 ~ 10 ~ 10 . 08 ~ 10 . 08 . 08 # 24 . 08 . 08 . 08 . 08 ! 09 . 08 . 08 . 08 ! 09 ! 09 . 08 . 08 . 08 . 08 . 08 . 08 . 08 . 08 # 24 . 00
. 00 # 24 . 08 ; 12 . 08 . 08 . 08 . 08 . 08 . 08 . 08 ~ 10 # 24 ~ 10 . 08 . 08 . 08 . 08 . 08 . 08 . 08 ~ 10 . 08 . 08 ~ 10 ~ 10 . 08 . 08 ; 13 # 24 . 08 ; 12 ~ 10 . 08 . 08 . 08 ! 09 . 08 . 08 ! 09 . 08 . 08 ! 09 ! 09 . 08 . 08 . 08 ; 13 # 24 ~ 02
. 00 # 24 ; 13 . 08 . 08 ~ 10 . 08 . 08 . 08 . 08 . 08 . 08 # 24 . 08 ; 13 . 08 ~ 10 . 08 . 08 ~ 10 . 08 . 08 . 08 ~ 10 ~ 10 ; 12 . 08 ; 13 . 08 # 24 ! 09 . 08 . 08 . 08 ! 09 ! 09 . 08 ~ 10 ! 09 . 08 ! 09 ! 09 . 08 . 08 . 08 . 08 ; 12 . 08 # 24 . 00
! 01 # 24 # 41 # 41 # 41 # 41 # 41 # 44 # 41 # 41 # 41 # 41 # 40 # 41 # 41 # 41 # 41 # 41 # 44 # 41 # 41 # 41 # 41 # 41 # 41 # 44 # 41 # 41 # 41 # 40 # 41 # 41 # 41 # 44 # 41 # 41 # 41 # 41 # 41 # 41 # 41 # 41 # 41 # 41 # 41 . 08 # 41 # 41 # 24 # 04
# 04 # 24 . 08 . 08 . 08 . 08 ~ 10 ~ 10 . 08 . 08 . 08 . 08 ~ 10 ; 12 . 08 . 08 . 08 ~ 10 . 08 ~ 10 . 08 . 08 ; 13 . 08 ! 09 . 08 . 08 . 08 . 08 ! 09 ~ 10 ; 12 . 08 ~ 10 . 08 + 21 ; 13 . 08 ; 13 ! 09 ; 12 ; 13 . 08 . 08 . 08 . 08 . 08 . 08 # 24 # 05
* 23 # 46 . 08 . 08 ~ 10 . 08 . 08 ; 11 ; 11 . 08 . 08 ~ 10 . 08 . 08 ! 09 . 08 . 08 ; 12 . 08 ! 09 . 08 . 08 . 08 . 08 . 08 . 08 ; 12 . 08 . 08 ~ 10 ~ 10 ~ 10 . 08 . 08 . 08 . 08 / 14 ; 12 ; 13 . 08 ; 13 . 08 . 08 . 08 ; 11 . 08 . 08 . 08 # 47 # 04
. 00 # 24 . 08 ~ 10 . 08 . 08 . 08 . 08 . 08 . 08 ; 12 . 08 . 08 ! 09 . 08 . 08 . 08 ; 13 ; 12 ! 09 ! 09 . 08 . 08 . 08 . 08 . 08 ! 09 ! 09 ~ 10 ~ 10 ; 13 ; 12 . 08 . 08 . 08 . 08 . 08 ! 09 ; 13 ; 12 ! 09 ! 09 . 08 . 08 . 08 . 08 . 08 . 08 # 24 # 04
# 04 # 24 # 41 # 41 # 41 # 41 # 41 . 08 # 41 # 41 # 41 # 42 # 42 # 41 # 41 # 43 # 41 # 41 # 44 # 41 # 41 # 41 # 43 # 41 # 41 # 44 # 41 # 41 # 41 # 42 # 41 # 41 # 41 # 44 # 41 # 41 # 42 # 41 # 41 # 43 # 41 # 41 # 42 # 41 # 41 . 08 # 41 # 41 # 24 . 00
# 05 # 24 . 08 ~ 10 . 08 . 08 . 08 . 08 . 08 ; 12 ; 12 ~ 10 . 08 ! 09 . 08 # 24 . 08 ! 09 . 08 . 08 ; 13 . 08 # 24 . 08 ~ 10 . 08 . 08 . 08 ; 13 ! 09 ; 12 . 08 . 08 . 08 . 08 . 08 ~ 10 . 08 ~ 10 # 24 ~ 10 ; 13 ! 09 . 08 . 08 . 08 ; 12 . 08 # 24 ! 01
# 04 # 24 ~ 10 . 08 . 08 . 08 . 08 . 08 ; 12 ! 09 ; 13 . 08 . 08 . 08 . 08 # 24 . 08 . 08 . 08 . 08 ; 11 . 08 # 24 . 08 . 08 . 08 ~ 10 ! 09 . 08 ; 13 ; 12 . 08 . 08 . 08 ~ 10 . 08 . 08 . 08 . 08 # 24 ; 11 ; 11 ; 11 . 08 . 08 . 08 . 08 ; 12 # 24 . 00
! 01 # 24 . 08 ! 09 . 08 . 08 . 08 . 08 ; 12 ~ 10 ! 09 . 08 . 08 . 08 . 08 . 31 . 08 . 08 + 21 . 08 . 08 . 08 . 31 . 08 . 08 . 08 . 08 . 08 . 08 ; 12 . 08 . 08 ; 12 . 08 . 08 . 08 . 08 . 08 . 08 . 31 . 08 . 08 . 08 . 08 . 08 ; 11 . 08 ! 09 # 24 ~ 02
. 00 # 24 . 08 . 08 . 08 . 08 . 08 ; 13 ; 13 ; 12 . 08 . 08 . 08 . 08 . 08 # 24 . 08 . 08 . 08 . 08 . 08 . 08 # 24 . 08 . 08 . 08 ! 09 . 08 . 08 . 08 ~ 10 ; 13 ; 13 ; 12 ~ 10 . 08 . 08 . 08 . 08 # 24 . 08 . 08 ; 12 . 08 . 08 . 08 . 08 . 08 # 24 ~ 02
~ 02 # 24 ; 13 . 08 . 08 . 08 . 08 . 08 ~ 10 . 08 . 08 . 08 . 08 ~ 10 . 08 # 24 . 08 . 08 . 08 . 08 . 08 ~ 10 # 24 ~ 10 . 08 . 08 . 08 . 08 . 08 . 08 . 08 ~ 10 ; 12 ; 13 . 08 . 08 . 08 . 08 . 08 # 24 ; 13 ~ 10 . 08 ; 13 ; 13 . 08 . 08 . 08 # 24 . 00
# 04 # 24 . 08 . 08 ~ 10 . 08 ; 12 . 08 . 08 . 08 . 08 . 08 ~ 10 ~ 10 . 08 # 24 ; 12 . 08 . 08 . 08 ~ 10 . 08 # 24 . 08 . 08 ! 09 . 08 . 08 ! 09 . 08 ~ 10 ; 13 . 08 ; 13 . 08 . 08 . 08 ~ 10 . 08 # 24 ; 12 ; 13 ; 12 ! 09 ! 09 . 08 . 08 ~ 10 # 24 ! 01
! 01 # 30 # 30 # 30 # 30 # 30 # 30 # 30 # 30 # 30 # 30 # 30 # 30 # 30 # 30 # 30 # 30 # 30 # 30 # 30 # 30 # 30 # 30 # 30 # 30 # 29 # 30 # 30 # 29 # 30 # 30 # 30 # 30 # 29 # 30 # 30 # 29 # 30 # 30 # 30 # 30 # 30 # 29 # 30 # 30 # 30 # 29 # 30 # 30 ! 01
. 00 . 00 ! 01 ! 01 ! 01 . 00 ~ 02 . 00 . 00 . 00 . 00 # 04 # 04 . 00 ~ 02 . 00 . 00 . 00 . 00 ~ 02 . 00 . 00 ! 01 . 00 . 00 . 00 . 00 . 00 . 00 ~ 02 ~ 02 . 00 ~ 02 . 00 . 00 . 00 ! 01 . 00 . 00 . 00 . 00 ! 01 . 00 . 00 ~ 02 ~ 02 . 00 . 00 . 00 . 00
4 4
9
0 25 15 6
1 28 17 4
0 11 15 6
1 4 15 4
0 7 14 6
1 16 10 4
0 22 10 6
1 23 11 4
2 31 13 4
15
 4  4 Bienvenue jeune etudiant, tu peux\utiliser Z Q S D pour te déplacer.
 6  4 Actionne ce levier pour briser le 4ième\mur déjà bien âbimé et jouer au tuto.
16  5 Certaines parties du sol te feront\ralentir. C'est le cas de ces\fissures au sol devant toi.
32  4 Il y a aussi des endroits où tu te\blesseras en marchant dessus.\Attention ! Cette salle en est remplie.
44 11 Tu te demandes sûrement ce qu'il\s'est passé dans cette université...\Je vais t'expliquer
45 16 Les professeurs de l'université ont mis\tellement d'âme et d'énergie dans votre\réussite que les contrôles ont pris vie.
42 15 Dommage pour toi, le règlement\c'est le règlement.
41 15 Il te faudra quand-même affronter les\contrôles pour valider ton année.\Bonne chance !
40 15 Utilise O K L M pour\frapper les ennemis.
20 15 Tu peux rammasser ces objets qui te\permettront de remonter ta note.\Appuie sur espace pour en utiliser un.
 7 11 Regarde ! Derrière cette porte à gauche\se trouve ton objectif pour\terminer ce niveau.
 8 11 Tu devrais chercher comment\ouvrir cette porte...
24 2 (55-35)/20
36 13 a = (200 * 2)/b\b = 180 - 160\a/b ?
42 2 niveau sivant
